Hello, world.  I am 1 of 48 on e2197
Hello, world.  I am 2 of 48 on e2197
Hello, world.  I am 3 of 48 on e2197
Hello, world.  I am 4 of 48 on e2197
Hello, world.  I am 5 of 48 on e2197
Hello, world.  I am 7 of 48 on e2197
Hello, world.  I am 10 of 48 on e2197
Hello, world.  I am 11 of 48 on e2197
Hello, world.  I am 13 of 48 on e2197
Hello, world.  I am 9 of 48 on e2197
Hello, world.  I am 12 of 48 on e2197
Hello, world.  I am 14 of 48 on e2197
Hello, world.  I am 15 of 48 on e2197
Hello, world.  I am 16 of 48 on e2197
Hello, world.  I am 17 of 48 on e2197
Hello, world.  I am 18 of 48 on e2197
Hello, world.  I am 19 of 48 on e2197
Hello, world.  I am 20 of 48 on e2197
Hello, world.  I am 21 of 48 on e2197
Hello, world.  I am 6 of 48 on e2197
Hello, world.  I am 8 of 48 on e2197
Hello, world.  I am 22 of 48 on e2197
Hello, world.  I am 23 of 48 on e2197
Hello, world.  I am 0 of 48 on e2197
Hello, world.  I am 37 of 48 on e2208
Hello, world.  I am 38 of 48 on e2208
Hello, world.  I am 39 of 48 on e2208
Hello, world.  I am 40 of 48 on e2208
Hello, world.  I am 41 of 48 on e2208
Hello, world.  I am 42 of 48 on e2208
Hello, world.  I am 43 of 48 on e2208
Hello, world.  I am 44 of 48 on e2208
Hello, world.  I am 45 of 48 on e2208
Hello, world.  I am 46 of 48 on e2208
Hello, world.  I am 47 of 48 on e2208
Hello, world.  I am 26 of 48 on e2208
Hello, world.  I am 28 of 48 on e2208
Hello, world.  I am 29 of 48 on e2208
Hello, world.  I am 30 of 48 on e2208
Hello, world.  I am 31 of 48 on e2208
Hello, world.  I am 32 of 48 on e2208
Hello, world.  I am 33 of 48 on e2208
Hello, world.  I am 34 of 48 on e2208
Hello, world.  I am 35 of 48 on e2208
Hello, world.  I am 36 of 48 on e2208
Hello, world.  I am 24 of 48 on e2208
Hello, world.  I am 25 of 48 on e2208
Hello, world.  I am 27 of 48 on e2208
