Sender: LSF System <lsfadmin@e1258>
Subject: Job 28539861: <echo $HOSTNAME;echo "I am here";./cputest> in cluster <euler> Done

Job <echo $HOSTNAME;echo "I am here";./cputest> was submitted from host <euler04> by user <chatzidp> in cluster <euler>.
Job was executed on host(s) <e1258>, in queue <normal.4h>, as user <chatzidp> in cluster <euler>.
</cluster/home/chatzidp> was used as the home directory.
</cluster/home/chatzidp/Euler_demo> was used as the working directory.
Started at Thu Sep 22 23:06:56 2016
Results reported on Thu Sep 22 23:06:58 2016

Your job looked like:

------------------------------------------------------------
# LSBATCH: User input
echo $HOSTNAME
echo "I am here"
./cputest

------------------------------------------------------------

Successfully completed.

Resource usage summary:

    CPU time :               0.01 sec.
    Total Requested Memory : 1024.00 MB
    Delta Memory :           -
    (Delta: the difference between Total Requested Memory and Max Memory.)

The output (if any) follows:

e1258
I am here
Hello, I am running on host: e1258
Elapsed time = 1.000071 seconds
